23T3/lab3/L3P2_restored/simulation/qsim/L3P2.msim.vcd
$comment
	File created using the following command:
		vcd file L3P2.msim.vcd -direction
$end
$date
	Thu Oct 05 18:56:53 2023
$end
$version
	ModelSim Version 10.1d
$end
$timescale
	1ps
$end
$scope module L3P2_vlg_vec_tst $end
$var reg 1 ! Clk $end
$var reg 1 " D $end
$var wire 1 # Q $end
$var wire 1 $ sampler $end
$scope module i1 $end
$var wire 1 % gnd $end
$var wire 1 & vcc $end
$var wire 1 ' unknown $end
$var tri1 1 ( devclrn $end
$var tri1 1 ) devpor $end
$var tri1 1 * devoe $end
$var wire 1 + S_g~combout $end
$var wire 1 , Clk~input_o $end
$var wire 1 - Q~output_o $end
$var wire 1 . D~input_o $end
$var wire 1 / R~combout $end
$var wire 1 0 R_g~combout $end
$var wire 1 1 Qb~combout $end
$var wire 1 2 Qa~combout $end
$upscope $end
$upscope $end
$enddefinitions $end
#0
$dumpvars
0!
1"
x#
x$
0%
1&
x'
1(
1)
1*
1+
0,
x-
1.
0/
10
x1
x2
$end
#2000
0"
0.
0$
1/
#7000
1"
1.
1$
0/
#12000
0"
0.
0$
1/
#17000
1"
1.
1$
0/
#20000
1!
1,
0$
0+
11
02
0-
0#
#22000
0"
0.
1$
1/
1+
00
12
01
1-
1#
#27000
1"
1.
0$
0/
0+
10
11
02
0-
0#
#32000
0"
0.
1$
1/
1+
00
12
01
1-
1#
#37000
1"
1.
0$
0/
0+
10
11
02
0-
0#
#40000
0!
0,
1$
1+
#42000
0"
0.
0$
1/
#47000
1"
1.
1$
0/
#52000
0"
0.
0$
1/
#57000
1"
1.
1$
0/
#60000
1!
1,
0$
0+
#62000
0"
0.
1$
1/
1+
00
12
01
1-
1#
#67000
1"
1.
0$
0/
0+
10
11
02
0-
0#
#72000
0"
0.
1$
1/
1+
00
12
01
1-
1#
#77000
1"
1.
0$
0/
0+
10
11
02
0-
0#
#80000
0!
0,
1$
1+
#82000
0"
0.
0$
1/
#87000
1"
1.
1$
0/
#92000
0"
0.
0$
1/
#97000
1"
1.
1$
0/
#100000
1!
1,
0$
0+
#102000
0"
0.
1$
1/
1+
00
12
01
1-
1#
#107000
1"
1.
0$
0/
0+
10
11
02
0-
0#
#112000
0"
0.
1$
1/
1+
00
12
01
1-
1#
#117000
1"
1.
0$
0/
0+
10
11
02
0-
0#
#120000
0!
0,
1$
1+
#122000
0"
0.
0$
1/
#127000
1"
1.
1$
0/
#132000
0"
0.
0$
1/
#137000
1"
1.
1$
0/
#140000
1!
1,
0$
0+
#142000
0"
0.
1$
1/
1+
00
12
01
1-
1#
#147000
1"
1.
0$
0/
0+
10
11
02
0-
0#
#152000
0"
0.
1$
1/
1+
00
12
01
1-
1#
#157000
1"
1.
0$
0/
0+
10
11
02
0-
0#
#160000
0!
0,
1$
1+
#162000
0"
0.
0$
1/
#167000
1"
1.
1$
0/
#172000
0"
0.
0$
1/
#177000
1"
1.
1$
0/
#180000
1!
1,
0$
0+
#182000
0"
0.
1$
1/
1+
00
12
01
1-
1#
#187000
1"
1.
0$
0/
0+
10
11
02
0-
0#
#192000
0"
0.
1$
1/
1+
00
12
01
1-
1#
#197000
1"
1.
0$
0/
0+
10
11
02
0-
0#
#200000
0!
0,
1$
1+
#202000
0"
0.
0$
1/
#207000
1"
1.
1$
0/
#212000
0"
0.
0$
1/
#217000
1"
1.
1$
0/
#220000
1!
1,
0$
0+
#222000
0"
0.
1$
1/
1+
00
12
01
1-
1#
#227000
1"
1.
0$
0/
0+
10
11
02
0-
0#
#232000
0"
0.
1$
1/
1+
00
12
01
1-
1#
#237000
1"
1.
0$
0/
0+
10
11
02
0-
0#
#240000
0!
0,
1$
1+
#242000
0"
0.
0$
1/
#247000
1"
1.
1$
0/
#252000
0"
0.
0$
1/
#257000
1"
1.
1$
0/
#260000
1!
1,
0$
0+
#262000
0"
0.
1$
1/
1+
00
12
01
1-
1#
#267000
1"
1.
0$
0/
0+
10
11
02
0-
0#
#272000
0"
0.
1$
1/
1+
00
12
01
1-
1#
#277000
1"
1.
0$
0/
0+
10
11
02
0-
0#
#280000
0!
0,
1$
1+
#282000
0"
0.
0$
1/
#287000
1"
1.
1$
0/
#292000
0"
0.
0$
1/
#297000
1"
1.
1$
0/
#300000
1!
1,
0$
0+
#302000
0"
0.
1$
1/
1+
00
12
01
1-
1#
#307000
1"
1.
0$
0/
0+
10
11
02
0-
0#
#312000
0"
0.
1$
1/
1+
00
12
01
1-
1#
#317000
1"
1.
0$
0/
0+
10
11
02
0-
0#
