22T3/lab/lab7-p2/simulation/qsim/L7P2.msim.vcd
$comment
	File created using the following command:
		vcd file L7P2.msim.vcd -direction
$end
$date
	Mon Oct 31 16:44:55 2022
$end
$version
	ModelSim Version 10.1d
$end
$timescale
	1ps
$end
$scope module L7P2_vlg_vec_tst $end
$var reg 4 ! KEY [3:0] $end
$var reg 10 " SW [9:0] $end
$var wire 1 # LEDR [9] $end
$var wire 1 $ LEDR [8] $end
$var wire 1 % LEDR [7] $end
$var wire 1 & LEDR [6] $end
$var wire 1 ' LEDR [5] $end
$var wire 1 ( LEDR [4] $end
$var wire 1 ) LEDR [3] $end
$var wire 1 * LEDR [2] $end
$var wire 1 + LEDR [1] $end
$var wire 1 , LEDR [0] $end
$var wire 1 - sampler $end
$scope module i1 $end
$var wire 1 . gnd $end
$var wire 1 / vcc $end
$var wire 1 0 unknown $end
$var tri1 1 1 devclrn $end
$var tri1 1 2 devpor $end
$var tri1 1 3 devoe $end
$var wire 1 4 y_Q~29_combout $end
$var wire 1 5 y_Q~33_combout $end
$var wire 1 6 y_Q~34_combout $end
$var wire 1 7 y_Q~5_regout $end
$var wire 1 8 y_Q~28_combout $end
$var wire 1 9 y_Q~37_combout $end
$var wire 1 : y_Q~4_regout $end
$var wire 1 ; y_Q~35_combout $end
$var wire 1 < y_Q~32_combout $end
$var wire 1 = y_Q~3_regout $end
$var wire 1 > y_Q~22_combout $end
$var wire 1 ? y_Q~21_combout $end
$var wire 1 @ y_Q~36_combout $end
$var wire 1 A y_Q~2_regout $end
$var wire 1 B WideNor0~combout $end
$var wire 1 C SW~combout [9] $end
$var wire 1 D SW~combout [8] $end
$var wire 1 E SW~combout [7] $end
$var wire 1 F SW~combout [6] $end
$var wire 1 G SW~combout [5] $end
$var wire 1 H SW~combout [4] $end
$var wire 1 I SW~combout [3] $end
$var wire 1 J SW~combout [2] $end
$var wire 1 K SW~combout [1] $end
$var wire 1 L SW~combout [0] $end
$var wire 1 M KEY~combout [3] $end
$var wire 1 N KEY~combout [2] $end
$var wire 1 O KEY~combout [1] $end
$var wire 1 P KEY~combout [0] $end
$upscope $end
$upscope $end
$enddefinitions $end
#0
$dumpvars
bx0 !
bx01 "
0,
0+
0*
0)
0(
0'
0&
0%
0$
0#
x-
0.
1/
x0
11
12
13
04
15
06
07
08
09
0:
1;
0<
0=
1>
1?
1@
0A
0B
1L
0K
zJ
zI
zH
zG
zF
zE
zD
zC
0P
zO
zN
zM
$end
#10000
bx1 !
1P
0-
1A
0?
0>
1<
14
1,
0@
#20000
bx0 !
0P
1-
#30000
bx1 !
1P
0-
0A
1=
1?
1>
04
19
0,
1+
1@
09
#40000
bx00 "
bx0 !
0P
0L
1-
0@
0;
0<
#50000
bx1 !
1P
0-
0=
0+
#60000
bx0 !
0P
1-
#70000
bx1 !
1P
0-
#80000
bx01 "
bx0 !
0P
1L
1-
1@
1;
#90000
bx1 !
1P
0-
1A
0?
0>
1<
14
1,
0@
#100000
bx0 !
0P
1-
#110000
bx1 !
1P
0-
0A
1=
1?
1>
04
19
0,
1+
1@
09
#111360
bx11 "
1K
1-
0>
0;
18
14
0<
19
#120000
bx0 !
0P
0-
#130000
bx1 !
1P
1-
1A
0=
1:
0?
04
1;
1,
0+
1*
0@
1<
#132096
bx01 "
0K
0-
1?
1>
0;
08
1@
0<
09
#140000
bx0 !
0P
1-
#150000
bx1 !
1P
0-
0:
0?
0>
1;
14
0*
0@
1<
#160000
bx0 !
0P
1-
#170000
bx1 !
1P
0-
0A
1=
1?
1>
04
19
0,
1+
1@
09
#180000
bx0 !
0P
1-
#190000
bx1 !
1P
0-
1A
0?
0>
0<
14
1,
0@
19
#200000
bx0 !
0P
1-
#210000
bx1 !
1P
0-
0A
0=
1:
1B
18
04
09
0;
0,
0+
1*
19
1#
#210944
bx11 "
1K
1-
1?
1;
14
1@
#220000
bx0 !
0P
0-
#230000
bx1 !
1P
1-
1A
0B
0?
1<
04
1,
0@
0#
#240000
bx0 !
0P
0-
#250000
bx1 !
1P
1-
0A
1=
1?
1>
14
09
0,
1+
1@
19
#260000
bx0 !
0P
0-
#270000
bx1 !
1P
1-
1A
0?
0>
0<
05
04
1,
0@
16
09
#280000
bx0 !
0P
0-
#290000
bx1 !
1P
1-
0A
0=
0:
17
1B
1?
08
19
0;
0,
0+
0*
1)
09
1#
#300000
bx0 !
0P
0-
#310000
bx1 !
1P
1-
#311040
bx01 "
0K
0-
1>
1;
06
1@
#320000
bx0 !
0P
1-
#330000
bx1 !
1P
0-
1A
07
0B
0?
0>
1<
15
14
1,
0)
0@
0#
#331264
bx11 "
1K
1-
1?
0;
18
1@
0<
19
#340000
bx0 !
0P
0-
#350000
bx1 !
1P
1-
1:
0?
1;
04
1*
0@
1<
#360000
bx0 !
0P
0-
#370000
bx1 !
1P
1-
0A
1=
1?
1>
14
09
0,
1+
1@
19
#370432
bx01 "
0K
0-
0;
04
0<
09
#380000
bx0 !
0P
1-
#390000
bx1 !
1P
0-
1A
0=
0:
0?
0>
08
14
19
1;
1,
0+
0*
0@
09
1<
#393472
bx00 "
0L
1-
0;
0<
#400000
bx0 !
0P
0-
#410000
bx1 !
1P
1-
0A
1?
1>
04
0,
#420000
bx0 !
0P
0-
#430000
bx1 !
1P
1-
#435712
bx01 "
1L
0-
1@
1;
#440000
bx0 !
0P
1-
#450000
bx1 !
1P
0-
1A
0?
0>
1<
14
1,
0@
#460000
bx0 !
0P
1-
#470000
bx1 !
1P
0-
0A
1=
1?
1>
04
19
0,
1+
1@
09
#480000
bx0 !
0P
1-
#490000
bx1 !
1P
0-
1A
0?
0>
0<
14
1,
0@
19
#500000
bx0 !
0P
1-
#510000
bx1 !
1P
0-
0A
0=
1:
1B
18
04
09
0;
0,
0+
1*
19
1#
#520000
bx0 !
0P
1-
#530000
bx1 !
1P
0-
#540000
bx0 !
0P
1-
#550000
bx1 !
1P
0-
#560000
bx0 !
0P
1-
#570000
bx1 !
1P
0-
#580000
bx0 !
0P
1-
#590000
bx1 !
1P
0-
#600000
bx0 !
0P
1-
#610000
bx1 !
1P
0-
#620000
bx0 !
0P
1-
#630000
bx1 !
1P
0-
#640000
bx0 !
0P
1-
#650000
bx1 !
1P
0-
#660000
bx0 !
0P
1-
#670000
bx1 !
1P
0-
#680000
bx0 !
0P
1-
#690000
bx1 !
1P
0-
#700000
bx0 !
0P
1-
#710000
bx1 !
1P
0-
#720000
bx0 !
0P
1-
#730000
bx1 !
1P
0-
#740000
bx0 !
0P
1-
#750000
bx1 !
1P
0-
#760000
bx0 !
0P
1-
#770000
bx1 !
1P
0-
#780000
bx0 !
0P
1-
#790000
bx1 !
1P
0-
#800000
bx0 !
0P
1-
#810000
bx1 !
1P
0-
#820000
bx0 !
0P
1-
#830000
bx1 !
1P
0-
#840000
bx0 !
0P
1-
#850000
bx1 !
1P
0-
#860000
bx0 !
0P
1-
#870000
bx1 !
1P
0-
#880000
bx0 !
0P
1-
#890000
bx1 !
1P
0-
#900000
bx0 !
0P
1-
#910000
bx1 !
1P
0-
#920000
bx0 !
0P
1-
#930000
bx1 !
1P
0-
#940000
bx0 !
0P
1-
#950000
bx1 !
1P
0-
#960000
bx0 !
0P
1-
#970000
bx1 !
1P
0-
#980000
bx0 !
0P
1-
#990000
bx1 !
1P
0-
