22T3/lab/lab2-p2.1/simulation/qsim/L2P21.msim.vcd
$comment
	File created using the following command:
		vcd file L2P21.msim.vcd -direction
$end
$date
	Sun Oct 02 00:10:55 2022
$end
$version
	ModelSim Version 10.1d
$end
$timescale
	1ps
$end
$scope module L2P21_vlg_vec_tst $end
$var reg 4 ! V [3:0] $end
$var wire 1 " M [3] $end
$var wire 1 # M [2] $end
$var wire 1 $ M [1] $end
$var wire 1 % M [0] $end
$var wire 1 & z $end
$var wire 1 ' sampler $end
$scope module i1 $end
$var wire 1 ( gnd $end
$var wire 1 ) vcc $end
$var wire 1 * unknown $end
$var tri1 1 + devclrn $end
$var tri1 1 , devpor $end
$var tri1 1 - devoe $end
$var wire 1 . m1|f~0_combout $end
$var wire 1 / m2|f~0_combout $end
$var wire 1 0 m3|f~0_combout $end
$var wire 1 1 s~0_combout $end
$var wire 1 2 V~combout [3] $end
$var wire 1 3 V~combout [2] $end
$var wire 1 4 V~combout [1] $end
$var wire 1 5 V~combout [0] $end
$upscope $end
$upscope $end
$enddefinitions $end
#0
$dumpvars
b0 !
0%
0$
0#
0"
0&
x'
0(
1)
x*
1+
1,
1-
0.
0/
00
01
05
04
03
02
$end
#10000
b1 !
15
0'
1%
#20000
b11 !
b10 !
05
14
1'
1.
0%
1$
#30000
b11 !
15
0'
1%
#40000
b111 !
b101 !
b100 !
05
04
13
1'
1/
0.
0%
1#
0$
#50000
b101 !
15
0'
1%
#60000
b111 !
b110 !
05
14
1'
1.
0%
1$
#70000
b111 !
15
0'
1%
#80000
b1111 !
b1011 !
b1001 !
b1000 !
05
04
03
12
1'
10
0/
0.
0%
1"
0#
0$
#90000
b1001 !
15
0'
1%
#100000
b1011 !
b1010 !
05
14
1'
11
00
0%
1&
0"
#110000
b1011 !
15
0'
1%
#120000
b1111 !
b1101 !
b1100 !
05
04
13
1'
1.
0%
1$
#130000
b1101 !
15
0'
1%
#140000
b1111 !
b1110 !
05
14
1'
1/
0.
0%
1#
0$
#150000
b1111 !
15
0'
1%
