22T3/lab/lab4-p1.1/simulation/qsim/L4P11.msim.vcd
$comment
	File created using the following command:
		vcd file L4P11.msim.vcd -direction
$end
$date
	Sun Oct 16 23:49:15 2022
$end
$version
	ModelSim Version 10.1d
$end
$timescale
	1ps
$end
$scope module L4P11_vlg_vec_tst $end
$var reg 1 ! Clearn $end
$var reg 1 " Clk $end
$var reg 1 # E $end
$var wire 1 $ Q [7] $end
$var wire 1 % Q [6] $end
$var wire 1 & Q [5] $end
$var wire 1 ' Q [4] $end
$var wire 1 ( Q [3] $end
$var wire 1 ) Q [2] $end
$var wire 1 * Q [1] $end
$var wire 1 + Q [0] $end
$var wire 1 , sampler $end
$scope module i1 $end
$var wire 1 - gnd $end
$var wire 1 . vcc $end
$var wire 1 / unknown $end
$var tri1 1 0 devclrn $end
$var tri1 1 1 devpor $end
$var tri1 1 2 devoe $end
$var wire 1 3 T6|Q~0_combout $end
$var wire 1 4 Clk~combout $end
$var wire 1 5 Clk~clkctrl_outclk $end
$var wire 1 6 E~combout $end
$var wire 1 7 T0|Q~0_combout $end
$var wire 1 8 Clearn~combout $end
$var wire 1 9 Clearn~clkctrl_outclk $end
$var wire 1 : T0|Q~regout $end
$var wire 1 ; T1|Q~0_combout $end
$var wire 1 < T1|Q~regout $end
$var wire 1 = T2|Q~0_combout $end
$var wire 1 > T2|Q~regout $end
$var wire 1 ? T3|Q~0_combout $end
$var wire 1 @ T3|Q~regout $end
$var wire 1 A T4|Q~0_combout $end
$var wire 1 B T4|Q~regout $end
$var wire 1 C T5|Q~0_combout $end
$var wire 1 D T5|Q~regout $end
$var wire 1 E T6|Q~1_combout $end
$var wire 1 F T6|Q~regout $end
$var wire 1 G T7|Q~0_combout $end
$var wire 1 H T7|Q~1_combout $end
$var wire 1 I T7|Q~regout $end
$var wire 1 J T [8] $end
$var wire 1 K T [7] $end
$var wire 1 L T [6] $end
$var wire 1 M T [5] $end
$var wire 1 N T [4] $end
$var wire 1 O T [3] $end
$var wire 1 P T [2] $end
$var wire 1 Q T [1] $end
$var wire 1 R T [0] $end
$upscope $end
$upscope $end
$enddefinitions $end
#0
$dumpvars
1!
0"
0#
0+
0*
0)
0(
0'
0&
0%
0$
x,
0-
1.
x/
10
11
12
13
04
05
06
07
18
19
0:
0;
0<
0=
0>
0?
0@
0A
0B
0C
0D
0E
0F
1G
0H
0I
zR
zQ
0P
zO
zN
zM
zL
zK
zJ
$end
#20000
1"
14
15
0,
#40000
1#
0"
16
04
05
1,
17
#60000
1"
14
15
0,
1:
1;
07
1+
#80000
0"
04
05
1,
#100000
1"
14
15
0,
1<
0:
17
1*
0+
#120000
0!
0"
08
04
05
09
1,
0<
0;
0*
#140000
1"
14
15
0,
#160000
0"
04
05
1,
#180000
1"
14
15
0,
#200000
1!
0"
18
04
05
19
1,
#220000
1"
14
15
0,
1:
1;
07
1+
#240000
0"
04
05
1,
#260000
1"
14
15
0,
1<
0:
17
1*
0+
#280000
0"
04
05
1,
#300000
1"
14
15
0,
1:
1=
0;
07
1+
#320000
0#
0"
06
04
05
1,
0=
1;
17
#340000
1"
14
15
0,
#360000
0"
04
05
1,
#380000
1"
14
15
0,
#400000
0"
04
05
1,
#420000
1"
14
15
0,
#440000
0"
04
05
1,
#460000
1"
14
15
0,
#480000
1#
0"
16
04
05
1,
1=
0;
07
#500000
1"
14
15
0,
1>
0<
0:
17
1)
0*
0+
#520000
0"
04
05
1,
#540000
1"
14
15
0,
1:
1;
07
1+
#560000
0"
04
05
1,
#580000
1"
14
15
0,
1<
0:
17
1*
0+
#600000
0#
0"
06
04
05
1,
07
#620000
1"
14
15
0,
#640000
0"
04
05
1,
#660000
1"
14
15
0,
#680000
0"
04
05
1,
#700000
1"
14
15
0,
#720000
1#
0"
16
04
05
1,
17
#740000
1"
14
15
0,
1:
1P
0=
0;
07
1+
1?
#760000
0"
04
05
1,
#780000
1"
14
15
0,
1@
0>
0<
0:
1A
0?
0P
17
1(
0)
0*
0+
0A
1?
#800000
0"
04
05
1,
#820000
1"
14
15
0,
1:
1;
07
1+
#840000
0"
04
05
1,
#860000
1"
14
15
0,
1<
0:
17
1*
0+
#880000
0"
04
05
1,
#900000
1"
14
15
0,
1:
1=
0;
07
1+
#920000
0#
0"
06
04
05
1,
0=
1;
17
#940000
1"
14
15
0,
#960000
0"
04
05
1,
#980000
1"
14
15
0,
